// Jest Snapshot v1, https://goo.gl/fbAQLP

exports[`employee reducer handles when getEmployee is dispatched 1`] = `
Object {
  "all": undefined,
}
`;

exports[`employee reducer handles when setEmployee is dispatched 1`] = `
Object {
  "currentEmployee": undefined,
}
`;

exports[`employee reducer handles when setStatusCode is dispatched 1`] = `
Object {
  "status": 200,
}
`;
